DM Object: Generated Mesh 1 MPI process
  type: plex
Generated Mesh in 2 dimensions:
  Number of 0-cells per rank: 30
  Number of 1-cells per rank: 71
  Number of 2-cells per rank: 42
Labels:
  celltype: 3 strata with value/size (0 (30), 3 (42), 1 (71))
  depth: 3 strata with value/size (0 (30), 1 (71), 2 (42))
  Cell Sets: 1 strata with value/size (7 (42))
  Face Sets: 8 strata with value/size (11 (4), 1 (4), 8 (4), 2 (4), 10 (4), 3 (4), 9 (4), 4 (4))
